<svg xmlns="http://www.w3.org/2000/svg" width="37.26" height="26.628" viewBox="0 0 37.26 26.628">
  <g id="messages-silhouette" transform="translate(0 -43.922)">
    <path id="Path_46" data-name="Path 46" d="M40.789,59.334a2.091,2.091,0,0,0,2.75.013L57.206,45.588c.914-.92.6-1.666-.694-1.666H27.928c-1.3,0-1.61.748-.7,1.671Z" transform="translate(-23.475 0)" fill="#707070"/>
    <path id="Path_47" data-name="Path 47" d="M1.642,90.711l9.3-9.511L1.65,71.781c-.911-.923-1.65-.62-1.65.677V90.042C0,91.339.735,91.638,1.642,90.711Z" transform="translate(0 -24.018)" fill="#707070"/>
    <path id="Path_48" data-name="Path 48" d="M27.818,182.462H56.193c1.3,0,1.614-.753.708-1.68l-9.254-9.476-2.064,2.081a5.1,5.1,0,0,1-7.04-.015l-2.1-2.127-9.331,9.538C26.206,181.71,26.521,182.462,27.818,182.462Z" transform="translate(-23.376 -111.912)" fill="#707070"/>
    <path id="Path_49" data-name="Path 49" d="M229,91.7V74.347c0-1.3-.741-1.6-1.655-.683l-9.2,9.262,9.216,9.439C228.265,93.294,229,92.995,229,91.7Z" transform="translate(-191.739 -25.676)" fill="#707070"/>
  </g>
</svg>
